\relax 
\catcode`"\active
\catcode`<\active
\catcode`>\active
\@nameuse{es@quoting}
\catcode`'\active
\select@language{spanish}
\@writefile{toc}{\select@language{spanish}}
\@writefile{lof}{\select@language{spanish}}
\@writefile{lot}{\select@language{spanish}}
\@writefile{toc}{\contentsline {chapter}{\numberline {1}Introducci'on}{2}}
\@writefile{lof}{\addvspace {10\p@ }}
\@writefile{lot}{\addvspace {10\p@ }}
\@writefile{toc}{\contentsline {section}{\numberline {1.1}Prop'osito}{2}}
\@writefile{toc}{\contentsline {section}{\numberline {1.2}Alcance}{2}}
\@writefile{toc}{\contentsline {section}{\numberline {1.3}Definiciones, acr'onimos y abreviaciones}{2}}
\@writefile{toc}{\contentsline {section}{\numberline {1.4}Referencias}{3}}
\@writefile{toc}{\contentsline {section}{\numberline {1.5}Resumen}{3}}
\@writefile{toc}{\contentsline {chapter}{\numberline {2}Descripci'on General}{4}}
\@writefile{lof}{\addvspace {10\p@ }}
\@writefile{lot}{\addvspace {10\p@ }}
\@writefile{toc}{\contentsline {section}{\numberline {2.1}Perspectiva del producto}{4}}
\@writefile{toc}{\contentsline {section}{\numberline {2.2}Funciones del producto}{4}}
\@writefile{toc}{\contentsline {section}{\numberline {2.3}Caracter'isticas del usuario}{5}}
\@writefile{toc}{\contentsline {section}{\numberline {2.4}Restricciones}{6}}
\@writefile{toc}{\contentsline {section}{\numberline {2.5}Supuestos y dependencias}{6}}
\@writefile{toc}{\contentsline {chapter}{\numberline {3}Requisitos Espec'ificos}{7}}
\@writefile{lof}{\addvspace {10\p@ }}
\@writefile{lot}{\addvspace {10\p@ }}
\@writefile{toc}{\contentsline {section}{\numberline {3.1}Interfaces externas}{7}}
\@writefile{toc}{\contentsline {section}{\numberline {3.2}Funciones}{7}}
\@writefile{toc}{\contentsline {section}{\numberline {3.3}Requisitos de rendimiento}{18}}
\@writefile{toc}{\contentsline {section}{\numberline {3.4}Requisitos l'ogicos de la BBDD}{18}}
\@writefile{toc}{\contentsline {section}{\numberline {3.5}Restricciones de dise'no}{18}}
